loadcore_IMPORTS_start
I_GetLibraryEntryTable
I_QueryLibraryEntryTable
I_RegisterLibraryEntries
I_FlushIcache
I_FlushDcache
loadcore_IMPORTS_end

sysclib_IMPORTS_start
I_memset
I_memmove
sysclib_IMPORTS_end

/*stdio_IMPORTS_start
I_printf
stdio_IMPORTS_end*/

intrman_IMPORTS_start
I_CpuSuspendIntr
I_CpuResumeIntr
intrman_IMPORTS_end

cdvdman_IMPORTS_start
I_sceCdInit
I_sceCdSync
I_sceCdReadDVDV
I_sceCdGetError
cdvdman_IMPORTS_end

